\babel@toc {spanish}{}
\contentsline {table}{\numberline {1}{\ignorespaces Materiales Espec\IeC {\'\i }ficos}}{2}{table.1}
\contentsline {table}{\numberline {2}{\ignorespaces Materiales de construcci\IeC {\'o}n}}{3}{table.2}
\contentsline {table}{\numberline {3}{\ignorespaces Costes del proyecto}}{27}{table.3}
\contentsline {table}{\numberline {4}{\ignorespaces Presupuestos de mano de obra}}{28}{table.4}
