\relax 
\providecommand\hyper@newdestlabel[2]{}
\catcode `"\active 
\catcode `<\active 
\catcode `>\active 
\@nameuse{es@quoting}
\providecommand\HyperFirstAtBeginDocument{\AtBeginDocument}
\HyperFirstAtBeginDocument{\ifx\hyper@anchor\@undefined
\global\let\oldcontentsline\contentsline
\gdef\contentsline#1#2#3#4{\oldcontentsline{#1}{#2}{#3}}
\global\let\oldnewlabel\newlabel
\gdef\newlabel#1#2{\newlabelxx{#1}#2}
\gdef\newlabelxx#1#2#3#4#5#6{\oldnewlabel{#1}{{#2}{#3}}}
\AtEndDocument{\ifx\hyper@anchor\@undefined
\let\contentsline\oldcontentsline
\let\newlabel\oldnewlabel
\fi}
\fi}
\global\let\hyper@last\relax 
\gdef\HyperFirstAtBeginDocument#1{#1}
\providecommand\HyField@AuxAddToFields[1]{}
\providecommand\HyField@AuxAddToCoFields[2]{}
\babel@aux{spanish}{}
\@writefile{toc}{\contentsline {section}{\numberline {1}Introducci\IeC {\'o}n}{1}{section.1}}
\@writefile{toc}{\contentsline {subsection}{\numberline {1.1}Contexto y justificaci\IeC {\'o}n del proyecto}{1}{subsection.1.1}}
\@writefile{toc}{\contentsline {subsection}{\numberline {1.2}Objetivos del proyecto}{1}{subsection.1.2}}
\@writefile{lof}{\contentsline {figure}{\numberline {1}{\ignorespaces C\IeC {\'o}digo encender y apagar LED Arduino}}{2}{figure.1}}
\@writefile{toc}{\contentsline {subsection}{\numberline {1.3}Materiales y recursos empleados}{2}{subsection.1.3}}
\@writefile{lot}{\contentsline {table}{\numberline {1}{\ignorespaces Materiales Espec\IeC {\'\i }ficos}}{2}{table.1}}
\@writefile{lot}{\contentsline {table}{\numberline {2}{\ignorespaces Materiales de construcci\IeC {\'o}n}}{3}{table.2}}
\@writefile{toc}{\contentsline {subsection}{\numberline {1.4}Arduino. Conceptos y funcionalidades}{4}{subsection.1.4}}
\@writefile{lof}{\contentsline {figure}{\numberline {2}{\ignorespaces IDE Arduino}}{4}{figure.2}}
\@writefile{lof}{\contentsline {figure}{\numberline {3}{\ignorespaces Conexi\IeC {\'o}n de Arduino a un componente}}{5}{figure.3}}
\@writefile{toc}{\contentsline {subsection}{\numberline {1.5}Evoluci\IeC {\'o}n del proyecto}{6}{subsection.1.5}}
\@writefile{lof}{\contentsline {figure}{\numberline {4}{\ignorespaces Evoluci\IeC {\'o}n 1}}{6}{figure.4}}
\@writefile{lof}{\contentsline {figure}{\numberline {5}{\ignorespaces PCB Arduino Mega 2560}}{6}{figure.5}}
\@writefile{lof}{\contentsline {figure}{\numberline {6}{\ignorespaces Evoluci\IeC {\'o}n 2}}{7}{figure.6}}
\@writefile{lof}{\contentsline {figure}{\numberline {7}{\ignorespaces Evoluci\IeC {\'o}n 3}}{8}{figure.7}}
\@writefile{lof}{\contentsline {figure}{\numberline {8}{\ignorespaces Evoluci\IeC {\'o}n 4}}{8}{figure.8}}
\@writefile{lof}{\contentsline {figure}{\numberline {9}{\ignorespaces PSU con la caja fuerte}}{9}{figure.9}}
\@writefile{lof}{\contentsline {figure}{\numberline {10}{\ignorespaces Arduino 2560}}{10}{figure.10}}
\@writefile{lof}{\contentsline {figure}{\numberline {11}{\ignorespaces Leds RX y TX Arduino MEGA 2560}}{11}{figure.11}}
\@writefile{toc}{\contentsline {subsection}{\numberline {1.6}Organizaci\IeC {\'o}n del trabajo en equipo}{12}{subsection.1.6}}
\@writefile{toc}{\contentsline {subsubsection}{\numberline {1.6.1}Scrum}{12}{subsubsection.1.6.1}}
\@writefile{lof}{\contentsline {figure}{\numberline {12}{\ignorespaces Tareas Scrum - Diagrama circular}}{12}{figure.12}}
\@writefile{lof}{\contentsline {figure}{\numberline {13}{\ignorespaces Tareas Scrum - Diagrama de barras}}{13}{figure.13}}
\@writefile{toc}{\contentsline {subsubsection}{\numberline {1.6.2}GIT}{13}{subsubsection.1.6.2}}
\@writefile{lof}{\contentsline {figure}{\numberline {14}{\ignorespaces Imagen de GIT}}{13}{figure.14}}
\@writefile{lof}{\contentsline {figure}{\numberline {15}{\ignorespaces Estad\IeC {\'\i }sticas subidas GIT}}{14}{figure.15}}
\@writefile{toc}{\contentsline {section}{\numberline {2}Descripci\IeC {\'o}n Funcional}{15}{section.2}}
\@writefile{lof}{\contentsline {figure}{\numberline {16}{\ignorespaces Opciones Arduino men\IeC {\'u} de inicio}}{15}{figure.16}}
\@writefile{toc}{\contentsline {subsection}{\numberline {2.1}Lector de tarjetas}{16}{subsection.2.1}}
\@writefile{toc}{\contentsline {subsubsection}{\numberline {2.1.1}Tecnolog\IeC {\'\i }a RFID}{16}{subsubsection.2.1.1}}
\@writefile{toc}{\contentsline {subsubsection}{\numberline {2.1.2}Funcionamiento del RFID}{16}{subsubsection.2.1.2}}
\@writefile{toc}{\contentsline {subsubsection}{\numberline {2.1.3}Registro de la tarjeta}{17}{subsubsection.2.1.3}}
\@writefile{lof}{\contentsline {figure}{\numberline {17}{\ignorespaces Men\IeC {\'u} arduino de las opciones de la tarjeta}}{17}{figure.17}}
\@writefile{toc}{\contentsline {subsubsection}{\numberline {2.1.4}Validaci\IeC {\'o}n de la tarjeta}{19}{subsubsection.2.1.4}}
\@writefile{lof}{\contentsline {figure}{\numberline {18}{\ignorespaces Acceso no autorizado Arduino}}{19}{figure.18}}
\@writefile{lof}{\contentsline {figure}{\numberline {19}{\ignorespaces Acceso autorizado Arduino}}{19}{figure.19}}
\@writefile{toc}{\contentsline {subsection}{\numberline {2.2}Sensor de huellas}{21}{subsection.2.2}}
\@writefile{lof}{\contentsline {figure}{\numberline {20}{\ignorespaces Sensor de huella dactilar}}{21}{figure.20}}
\@writefile{toc}{\contentsline {subsubsection}{\numberline {2.2.1}Registro de la huella}{21}{subsubsection.2.2.1}}
\@writefile{lof}{\contentsline {figure}{\numberline {21}{\ignorespaces LCD con huella}}{22}{figure.21}}
\@writefile{lof}{\contentsline {figure}{\numberline {22}{\ignorespaces LCD con huella II}}{22}{figure.22}}
\@writefile{toc}{\contentsline {subsubsection}{\numberline {2.2.2}Validaci\IeC {\'o}n de la huella}{23}{subsubsection.2.2.2}}
\@writefile{toc}{\contentsline {subsection}{\numberline {2.3}Registro en el excel}{24}{subsection.2.3}}
\@writefile{toc}{\contentsline {subsubsection}{\numberline {2.3.1}Herramienta PLX-DAQ}{24}{subsubsection.2.3.1}}
\@writefile{toc}{\contentsline {subsubsection}{\numberline {2.3.2}Procedimiento para el registro}{25}{subsubsection.2.3.2}}
\@writefile{lof}{\contentsline {figure}{\numberline {23}{\ignorespaces Herramienta con tarjeta}}{25}{figure.23}}
\@writefile{lof}{\contentsline {figure}{\numberline {24}{\ignorespaces Herramienta con huella}}{26}{figure.24}}
\@writefile{toc}{\contentsline {section}{\numberline {3}Valoraci\IeC {\'o}n Econ\IeC {\'o}mica}{27}{section.3}}
\@writefile{lot}{\contentsline {table}{\numberline {3}{\ignorespaces Costes del proyecto}}{27}{table.3}}
\@writefile{lot}{\contentsline {table}{\numberline {4}{\ignorespaces Presupuestos de mano de obra}}{28}{table.4}}
\@writefile{toc}{\contentsline {section}{\numberline {4}Conclusiones y mejoras futuras}{29}{section.4}}
\@writefile{toc}{\contentsline {subsection}{\numberline {4.1}Conclusiones}{29}{subsection.4.1}}
\@writefile{lof}{\contentsline {figure}{\numberline {25}{\ignorespaces Pantalla TFT LCD t\IeC {\'a}ctil}}{29}{figure.25}}
\@writefile{lof}{\contentsline {figure}{\numberline {26}{\ignorespaces Teclado matricial 4 x 4}}{30}{figure.26}}
\@writefile{lof}{\contentsline {figure}{\numberline {27}{\ignorespaces Teclado matriz de arranque MCU y TTP229 t\IeC {\'a}ctil}}{30}{figure.27}}
\@writefile{toc}{\contentsline {subsection}{\numberline {4.2}Mejoras Futuras y Propuestas}{31}{subsection.4.2}}
\@writefile{toc}{\contentsline {section}{\numberline {5}Glosario}{32}{section.5}}
\@writefile{toc}{\contentsline {section}{\numberline {6}Referencias Bibliogr\IeC {\'a}ficas}{33}{section.6}}
\@writefile{toc}{\contentsline {section}{\numberline {7}Anexos}{35}{section.7}}
\@writefile{toc}{\contentsline {subsection}{\numberline {7.1}Normas ISO Relativas a RFID}{35}{subsection.7.1}}
\@writefile{lof}{\contentsline {figure}{\numberline {28}{\ignorespaces Logo Normativa ISO}}{35}{figure.28}}
\@writefile{toc}{\contentsline {subsection}{\numberline {7.2}C\IeC {\'o}digo}{36}{subsection.7.2}}
\@writefile{toc}{\contentsline {subsubsection}{\numberline {7.2.1}Opciones men\IeC {\'u} principal}{36}{subsubsection.7.2.1}}
\@writefile{lof}{\contentsline {figure}{\numberline {29}{\ignorespaces Opciones Men\IeC {\'u} Inicio}}{36}{figure.29}}
\@writefile{toc}{\contentsline {subsubsection}{\numberline {7.2.2}Opciones del men\IeC {\'u} tarjetas}{36}{subsubsection.7.2.2}}
\@writefile{lof}{\contentsline {figure}{\numberline {30}{\ignorespaces Men\IeC {\'u} Opciones Tarjeta}}{36}{figure.30}}
\@writefile{toc}{\contentsline {subsubsection}{\numberline {7.2.3}Comprobaci\IeC {\'o}n del funcionamiento del lector}{37}{subsubsection.7.2.3}}
\@writefile{lof}{\contentsline {figure}{\numberline {31}{\ignorespaces Comprobaci\IeC {\'o}n del funcionamiento del lector}}{37}{figure.31}}
\@writefile{toc}{\contentsline {subsubsection}{\numberline {7.2.4}Registro de una tarjeta}{37}{subsubsection.7.2.4}}
\@writefile{lof}{\contentsline {figure}{\numberline {32}{\ignorespaces C\IeC {\'o}digo de Registro de tarjeta (switch)}}{37}{figure.32}}
\@writefile{toc}{\contentsline {subsubsection}{\numberline {7.2.5}Almacenamiento del ID de la tarjeta}{38}{subsubsection.7.2.5}}
\@writefile{lof}{\contentsline {figure}{\numberline {33}{\ignorespaces Funci\IeC {\'o}n para almacenar ID de una tarjeta}}{38}{figure.33}}
\@writefile{toc}{\contentsline {subsubsection}{\numberline {7.2.6}Validaci\IeC {\'o}n de la tarjeta}{39}{subsubsection.7.2.6}}
\@writefile{lof}{\contentsline {figure}{\numberline {34}{\ignorespaces Opci\IeC {\'o}n del men\IeC {\'u} switch para validar}}{39}{figure.34}}
\@writefile{toc}{\contentsline {subsubsection}{\numberline {7.2.7}Extraer el c\IeC {\'o}digo de la tarjeta}{40}{subsubsection.7.2.7}}
\@writefile{lof}{\contentsline {figure}{\numberline {35}{\ignorespaces Funci\IeC {\'o}n para extraer numero de la tarjeta}}{40}{figure.35}}
\@writefile{toc}{\contentsline {subsubsection}{\numberline {7.2.8}Comparaci\IeC {\'o}n bytes de la tarjeta}{40}{subsubsection.7.2.8}}
\@writefile{lof}{\contentsline {figure}{\numberline {36}{\ignorespaces Comparaci\IeC {\'o}n del c\IeC {\'o}digo de la tarjeta con el patr\IeC {\'o}n}}{40}{figure.36}}
\@writefile{toc}{\contentsline {subsubsection}{\numberline {7.2.9}Registro de la huella}{41}{subsubsection.7.2.9}}
\@writefile{lof}{\contentsline {figure}{\numberline {37}{\ignorespaces Captura de la huella}}{41}{figure.37}}
\@writefile{lof}{\contentsline {figure}{\numberline {38}{\ignorespaces Generar imagen de la huella}}{41}{figure.38}}
\@writefile{toc}{\contentsline {subsubsection}{\numberline {7.2.10}Validaci\IeC {\'o}n de la huella}{42}{subsubsection.7.2.10}}
\@writefile{lof}{\contentsline {figure}{\numberline {39}{\ignorespaces Buscar ID de la huella}}{42}{figure.39}}
\@writefile{toc}{\contentsline {subsection}{\numberline {7.3}Presupuestos}{43}{subsection.7.3}}
\@writefile{lof}{\contentsline {figure}{\numberline {40}{\ignorespaces Factura Cerradura + Kit + Llaves}}{43}{figure.40}}
\@writefile{lof}{\contentsline {figure}{\numberline {41}{\ignorespaces Factura lector de huella}}{44}{figure.41}}
\@writefile{lof}{\contentsline {figure}{\numberline {42}{\ignorespaces Factura fuente de alimentaci\IeC {\'o}n de repuesto}}{44}{figure.42}}
\@writefile{lof}{\contentsline {figure}{\numberline {43}{\ignorespaces Factura fuente de alimentaci\IeC {\'o}n}}{45}{figure.43}}
\@writefile{lof}{\contentsline {figure}{\numberline {44}{\ignorespaces Factura RFID repuesto}}{45}{figure.44}}
\@writefile{lof}{\contentsline {figure}{\numberline {45}{\ignorespaces Factura cables de repuesto y Arduino Mega 2560}}{46}{figure.45}}
\@writefile{lof}{\contentsline {figure}{\numberline {46}{\ignorespaces Factura Rel\IeC {\'e} 5V}}{46}{figure.46}}
\@writefile{lof}{\contentsline {figure}{\numberline {47}{\ignorespaces Factura materiales para la elaboraci\IeC {\'o}n de la caja}}{47}{figure.47}}
